…
[^1]: <https://masalmon.eu/2017/05/14/evergreenreviewgraph/>

[^2]: Europe PMC Search Syntax: <https://europepmc.org/Help#mostofsearch>

## Use Cases 

### Use Case: Growth of Open Access Literature

There is a growing interest in knowing the proportion of open access to scholarly literature. Europe PMC allows searching for open access content with the [`OPEN_ACCESS:Y` parameter](https://europepmc.org/search?query=OPEN_ACCESS:Y&page=1&sortby=Relevance). At the moment, Europe PMC contains 3,740,002 open access full-texts. Let's see how they are relatively distributed over the period 1995 - 2016.


```r
tt_oa <- europepmc::epmc_hits_trend("OPEN_ACCESS:Y", period = 1995:2016, synonym = FALSE)
tt_oa
#> # A tibble: 22 × 3
#>     year all_hits query_hits
#>    <int>    <dbl>      <dbl>
#>  1  1995   449064       3337
#>  2  1996   458526       3508
#>  3  1997   456744       3665
#>  4  1998   474613       3836
#>  5  1999   493745       3918
#>  6  2000   532019       4328
#>  7  2001   545674       5479
#>  8  2002   561426       5894
#>  9  2003   588572       7148
#> 10  2004   628141       9795
#> # … with 12 more rows
…
```r
library(dplyr)
my_df <- purrr::map_df(dvcs_query, function(x) {
  # get number of publications with indexed reference lists
  refs_hits <- 
    europepmc::epmc_hits_trend("has_reflist:y", period = 2009:2016, synonym = FALSE)$query_hits
  # get hit count querying for code repositories 
  europepmc::epmc_hits_trend(x, period = 2009:2016, synonym = FALSE) %>% 
    dplyr::mutate(query_id = x) %>%
    dplyr::mutate(refs_hits = refs_hits) %>%
    dplyr::select(year, all_hits, refs_hits, query_hits, query_id)
}) 
my_df
#> # A tibble: 40 × 5
#>     year all_hits refs_hits query_hits query_id                 
#>    <int>    <dbl>     <dbl>      <dbl> <chr>                    
#>  1  2009   793068    555477         13 "REF:\"code.google.com\""
#>  2  2010   851021    540514         40 "REF:\"code.google.com\""
#>  3  2011   904618    603060         65 "REF:\"code.google.com\""
#>  4  2012   945899    635448         92 "REF:\"code.google.com\""
#>  5  2013  1003845    761512        135 "REF:\"code.google.com\""
#>  6  2014  1055435    797039        140 "REF:\"code.google.com\""
#>  7  2015  1095859    779562        117 "REF:\"code.google.com\""
#>  8  2016  1116157    782630         65 "REF:\"code.google.com\""
#>  9  2009   793068    555477          2 "REF:\"github.com\""     
#> 10  2010   851021    540514         10 "REF:\"github.com\""     
#> # … with 30 more rows
…
